…
We can see from the above str() result that the 'day' variable has coded each observation as weekday or weekend.

Next we want to evaluate the average number of steps taken, per interval during the day:

``` r
by_interval <- group_by(activityData, activityData$interval, activityData$day)
stepsperinterval <- summarize(by_interval, mean(steps, na.rm=TRUE))
stepsperinterval
```

    ## # A tibble: 576 x 3
    ## # Groups:   activityData$interval [?]
    ##    `activityData$interval` `activityData$day` `mean(steps, na.rm = TRUE)`
    ##                      <int> <fct>                                    <dbl>
    ##  1                       0 weekday                                2.25   
    ##  2                       0 weekend                                0.215  
    ##  3                       5 weekday                                0.445  
    ##  4                       5 weekend                                0.0425 
    ##  5                      10 weekday                                0.173  
    ##  6                      10 weekend                                0.0165 
    ##  7                      15 weekday                                0.198  
    ##  8                      15 weekend                                0.0189 
    ##  9                      20 weekday                                0.0990 
    ## 10                      20 weekend                                0.00943
    ## # ... with 566 more rows
…
